{
  "santos": [
    {
      "id": 1,
      "name": "Seiya2",
      "constellation": "Pegaso"
    },
    {
      "id": 2,
      "name": "Shiryu",
      "constellation": "Dragón 22"
    },
    {
      "id": 3,
      "name": "Hyoga",
      "constellation": "Cisne"
    },
    {
      "id": 4,
      "name": "Shun",
      "constellation": "Andrómeda"
    },
    {
      "id": 5,
      "name": "Ikki",
      "constellation": "Fénix"
    },
    {
      "name": "hol",
      "constellation": "hola",
      "id": 1681827321619
    },
    {
      "name": "dsdasd",
      "constellation": "asdasdasd",
      "id": 1681827374296
    },
    {
      "name": "ddwdwd",
      "constellation": "wdwdwd",
      "id": 1681827439180
    },
    {
      "name": "adasdasd",
      "constellation": "adasdadasd",
      "id": 1681827506973
    },
    {
      "name": "adasdasd",
      "constellation": "asdasdasdasd",
      "id": 1681827572286
    },
    {
      "name": "fsafsdfasdfasf",
      "constellation": "asdfasdfasdfasdf",
      "id": 1681827692439
    },
    {
      "name": "dasdasdasda",
      "constellation": "sdasdasdadda",
      "id": 1681827782902
    },
    {
      "name": "asdasdasd",
      "constellation": "asdasda",
      "id": 1681827813945
    },
    {
      "name": "dasdasd",
      "constellation": "adasdasdsd",
      "id": 1681827853705
    },
    {
      "name": "dfasdasdasd",
      "constellation": "asdasdasd",
      "id": 1681827904898
    },
    {
      "name": "dasdasd",
      "constellation": "asdasdasdasd",
      "id": 1681827937978
    },
    {
      "name": "javier",
      "constellation": "helnande",
      "id": 1681828013860
    }
  ]
}